{
  "dev": {
    "oauth": {
      "CLIENT_ID": "N0DCfRGyCqPGA4JNymWT5CvUz84a",
      "SITE_HOST": "https://wso2-is.catenon.com",
      "REDIRECT_URL": "http://localhost:8080",
      "SCOPE": "default",
      "PROTECTED_RESOURCES": [
        "https://api.catenon.com"
      ]
    },
    "apis": {
      "USER": "https://api.catenon.com/api-user-service/v2",
      "OPERATION": "https://api.catenon.com/api-operation-service/v2",
      "BRIEFING": "https://api.catenon.com/api-briefing-service/v2",
      "EVALUATION": "https://api.catenon.com/api-evaluation-service/v2",
      "CLIENT": "https://api.catenon.com/api-client-service/v2",
      "MEDIA": "https://api.catenon.com/api-recruitment-source-service/v2",
      "CSI": "https://api.catenon.com/api-search-strategy-service/v2",
      "CANDIDATE": "https://api.catenon.com/api-candidate-service/v3",
      "EXECUTION": "https://api.catenon.com/api-execution-service/v2"
    },
    "apps": {
      "HOME": "http://localhost:8080",
      "USER": "http://localhost:3000",
      "OPERATION": "http://localhost:3002",
      "CLIENT": "http://localhost:3008",
      "MEDIA": "http://localhost:3010",
      "CANDIDATE": "http://localhost:3014"
    }
  },
  "pre": {
    "DEBUG_ENABLED": true,
    "OAUTH2": {
      "CLIENT_ID": "mKWvt0XhYirQD7fMfKqy9KEurNMa",
      "SITE_HOST": "https://wso2-is.catenon.com",
      "REDIRECT_URL": "http://pre-apps.catenon.com",
      "DOMAIN": ".catenon.com",
      "SCOPE": "default",
      "PROTECTED_RESOURCES": [
        "https://api.catenon.com"
      ]
    },
    "API_URL": {
      "USER": "https://api.catenon.com/api-user-service/v3",
      "OPERATION": "https://api.catenon.com/api-operation-service/v2",
      "BRIEFING": "https://api.catenon.com/api-briefing-service/v2",
      "EVALUATION": "https://api.catenon.com/api-evaluation-service/v2",
      "CLIENT": "https://api.catenon.com/api-client-service/v2",
      "MEDIA": "https://api.catenon.com/api-recruitment-source-service/v2",
      "CSI": "https://api.catenon.com/api-search-strategy-service/v2",
      "CANDIDATE": "https://api.catenon.com/api-candidate-service/v3",
      "EXECUTION": "https://api.catenon.com/api-execution-service/v2"
    },
    "APP_URL": {
      "APPS": "http://pre-apps.catenon.com",
      "USER": "http://pre-user.catenon.com",
      "OPERATION": "http://pre-operation.catenon.com",
      "CLIENT": "http://pre-client.catenon.com",
      "MEDIA": "http://pre-media.catenon.com",
      "CANDIDATE": "http://pre-candidate.catenon.com"
    }
  },
  "prod": {
    "DEBUG_ENABLED": false,
    "OAUTH2": {
      "CLIENT_ID": "p5wqS2YfBL0DmZtksf_Xwfn8qEga",
      "SITE_HOST": "https://wso2-is.catenon.com",
      "REDIRECT_URL": "http://apps.catenon.com",
      "DOMAIN": ".catenon.com",
      "SCOPE": "default",
      "PROTECTED_RESOURCES": [
        "https://api.catenon.com"
      ]
    },
    "API_URL": {
      "USER": "https://api.catenon.com/api-user-service/v3",
      "OPERATION": "https://api.catenon.com/api-operation-service/v2",
      "BRIEFING": "https://api.catenon.com/api-briefing-service/v2",
      "EVALUATION": "https://api.catenon.com/api-evaluation-service/v2",
      "CLIENT": "https://api.catenon.com/api-client-service/v2",
      "MEDIA": "https://api.catenon.com/api-recruitment-source-service/v2",
      "CSI": "https://api.catenon.com/api-search-strategy-service/v2",
      "CANDIDATE": "https://api.catenon.com/api-candidate-service/v3",
      "EXECUTION": "https://api.catenon.com/api-execution-service/v2"
    },
    "APP_URL": {
      "APPS": "http://apps.catenon.com",
      "USER": "http://user.catenon.com",
      "OPERATION": "http://operation.catenon.com",
      "CLIENT": "http://client.catenon.com",
      "MEDIA": "http://media.catenon.com",
      "CANDIDATE": "http://candidate.catenon.com"
    }
  }
}
